WIMR monitoring AMX/KNX device
Preset button presses on TP. 4 of Full Conference Presentation Off

Line      1 (11:31:21):: Command To [13001:1:6]-[$00S$00E$00T$00=$001$001$00:$001]
Line      2 (11:31:21):: Command To [13001:1:6]-[$00S$00E$00T$00=$001$002$00:$001]
Line      3 (11:31:21):: Command To [13001:1:6]-[$00S$00E$00T$00=$001$005$00:$001]
Line      4 (11:31:21):: Command To [13001:1:6]-[$00S$00E$00T$00=$001$008$00:$001]
Line      5 (11:31:21):: String From [13001:1:6]-[VAL=11:1]
Line      6 (11:31:22):: String From [13001:1:6]-[VAL=12:1]
Line      7 (11:31:22):: String From [13001:1:6]-[VAL=15:1]
Line      8 (11:31:22):: String From [13001:1:6]-[VAL=18:1]
Line      9 (11:31:24):: Command To [13001:1:6]-[$00S$00E$00T$00=$001$001$00:$001]
Line     10 (11:31:24):: Command To [13001:1:6]-[$00S$00E$00T$00=$001$004$00:$001$000$000]
Line     11 (11:31:24):: Command To [13001:1:6]-[$00S$00E$00T$00=$001$007$00:$002$000$000]
Line     12 (11:31:24):: Command To [13001:1:6]-[$00S$00E$00T$00=$002$000$00:$002$000$000]
Line     13 (11:31:24):: String From [13001:1:6]-[VAL=11:1]
Line     14 (11:31:24):: String From [13001:1:6]-[VAL=14:100]
Line     15 (11:31:25):: String From [13001:1:6]-[SET=17:200]
Line     16 (11:31:25):: Level Value From [13001:1:6] - Level 17  Value= 200
Line     17 (11:31:25):: String From [13001:1:6]-[SET=20:200]
Line     18 (11:31:25):: Level Value From [13001:1:6] - Level 20  Value= 200
Line     19 (11:31:27):: Command To [13001:1:6]-[$00S$00E$00T$00=$001$001$00:$001]
Line     20 (11:31:27):: Command To [13001:1:6]-[$00S$00E$00T$00=$001$002$00:$000]
Line     21 (11:31:27):: Command To [13001:1:6]-[$00S$00E$00T$00=$001$007$00:$001$000$000]
Line     22 (11:31:27):: Command To [13001:1:6]-[$00S$00E$00T$00=$002$000$00:$001$000$000]
Line     23 (11:31:27):: String From [13001:1:6]-[VAL=11:1]
Line     24 (11:31:27):: String From [13001:1:6]-[SET=12:0]
Line     25 (11:31:27):: Output Channel:Off [13001:1:6] - Channel 12 
Line     26 (11:31:27):: Level Value From [13001:1:6] - Level 12  Value= 0
Line     27 (11:31:27):: String From [13001:1:6]-[SET=17:100]
Line     28 (11:31:27):: Level Value From [13001:1:6] - Level 17  Value= 100
Line     29 (11:31:27):: String From [13001:1:6]-[SET=20:100]
Line     30 (11:31:27):: Level Value From [13001:1:6] - Level 20  Value= 100
Line     31 (11:31:29):: Command To [13001:1:6]-[$00S$00E$00T$00=$001$001$00:$000]
Line     32 (11:31:29):: Command To [13001:1:6]-[$00S$00E$00T$00=$001$002$00:$000]
Line     33 (11:31:29):: Command To [13001:1:6]-[$00S$00E$00T$00=$001$005$00:$000]
Line     34 (11:31:29):: Command To [13001:1:6]-[$00S$00E$00T$00=$001$008$00:$000]
Line     35 (11:31:29):: String From [13001:1:6]-[SET=11:0]
Line     36 (11:31:29):: Output Channel:Off [13001:1:6] - Channel 11 
Line     37 (11:31:29):: Level Value From [13001:1:6] - Level 11  Value= 0
Line     38 (11:31:29):: String From [13001:1:6]-[VAL=12:0]
Line     39 (11:31:29):: String From [13001:1:6]-[SET=15:0]
Line     40 (11:31:29):: Output Channel:Off [13001:1:6] - Channel 15 
Line     41 (11:31:29):: Level Value From [13001:1:6] - Level 15  Value= 0
Line     42 (11:31:29):: String From [13001:1:6]-[SET=18:0]
Line     43 (11:31:29):: Output Channel:Off [13001:1:6] - Channel 18 
Line     44 (11:31:29):: Level Value From [13001:1:6] - Level 18  Value= 0
